{
	"name": "Private Nachrichten System",
	"description": "Erlaubt das Versenden von Nachrichten zwischen einzelnen Usern",
	"autor": "Master IV",

	"scripts": {
		"message": {
			"name": "Private Nachrichten",
			"script": "iv.message.script"
		}
	},

	"moduls": [
		{
			"file": "iv.broadcast",
			"icon": "mail.png",
			"name": "Rundschreiben"
		}
	]
}
